dbscan
…
Se define el eps entre 0.02 y 0.1

tbl.pos<-run_dbscan(df, seq(.02,.1,.01), seq(5,50,1))

tbl.pos.rt<-tbl.pos %>% mutate(total=Hyades + No_Hyades,ratio=round(Hyades/total,2)) %>% filter(cls!=0) %>% group_by(test) %>% mutate(total_cls=n()) %>% filter(Hyades==max(Hyades),ratio>.2) %>% ungroup() %>% arrange(test)
tbl.pos.rt

## # A tibble: 34 x 9
##    cls   Hyades No_Hyades   eps minPts test  total ratio total_cls
##    <chr>  <dbl>     <dbl> <dbl>  <dbl> <fct> <dbl> <dbl>     <int>
##  1 19         7        16  0.02      7 3        23 0.3          49
##  2 7          5        12  0.02      8 4        17 0.290        17
##  3 3          5        10  0.02      9 5        15 0.33          6
##  4 2          5         7  0.02     10 6        12 0.42          2
##  5 2          5         7  0.02     11 7        12 0.42          2
##  6 42        23        83  0.03     10 52      106 0.22         80
##  7 25        21        72  0.03     11 53       93 0.23         57
##  8 8          9        19  0.03     13 55       28 0.32         20
##  9 6          7        16  0.03     14 56       23 0.3          11
## 10 5          6        16  0.03     15 57       22 0.27         10
## # ... with 24 more rows
…
Se define el eps entre 0.5 y 2

tbl.ndis<-run_dbscan(df4,seq(.5,2,.1),seq(5,50,1))

tbl.ndis.rt<-tbl.ndis %>% mutate(total=Hyades + No_Hyades,ratio=round(Hyades/total,2)) %>% filter(cls!=0) %>% group_by(test) %>% mutate(total_cls=n()) %>% filter(Hyades==max(Hyades), ratio>.5) %>% ungroup() %>% arrange(desc(ratio))
tbl.ndis.rt

## # A tibble: 26 x 9
##    cls   Hyades No_Hyades   eps minPts test  total ratio total_cls
##    <chr>  <dbl>     <dbl> <dbl>  <dbl> <fct> <dbl> <dbl>     <int>
##  1 2         28        16   0.5     29 25       44 0.64          2
##  2 2         28        17   0.5     27 23       45 0.62          2
##  3 2         28        17   0.5     28 24       45 0.62          2
##  4 2         24        15   0.5     30 26       39 0.62          2
##  5 2         30        23   0.6     37 79       53 0.570         2
##  6 2         31        24   0.6     34 76       55 0.56          2
##  7 2         30        24   0.6     35 77       54 0.56          2
##  8 2         30        24   0.6     36 78       54 0.56          2
##  9 2         28        22   0.6     38 80       50 0.56          2
## 10 2         28        22   0.6     39 81       50 0.56          2
## # ... with 16 more rows
…
